dump.vcd
$date
	Thu Sep 14 06:31:59 2023
$end
$version
	QuestaSim Version 2021.3
$end
$timescale
	1ns
$end

$scope module uvm_root $end
$upscope $end

$scope module tb $end
$var reg 1 ! clk $end
$var reg 1 " reset $end

$scope module dut $end
$var parameter 32 # ADDRESS $end
$var parameter 32 $ WIDTH $end
$var parameter 32 % DEPTH $end
$var wire 1 & clk $end
$var wire 1 ' reset $end
$var wire 1 ( i_wren $end
$var wire 1 ) i_rden $end
$var wire 1 * i_wrdata [127] $end
$var wire 1 + i_wrdata [126] $end
$var wire 1 , i_wrdata [125] $end
$var wire 1 - i_wrdata [124] $end
$var wire 1 . i_wrdata [123] $end
$var wire 1 / i_wrdata [122] $end
$var wire 1 0 i_wrdata [121] $end
$var wire 1 1 i_wrdata [120] $end
$var wire 1 2 i_wrdata [119] $end
$var wire 1 3 i_wrdata [118] $end
$var wire 1 4 i_wrdata [117] $end
$var wire 1 5 i_wrdata [116] $end
$var wire 1 6 i_wrdata [115] $end
$var wire 1 7 i_wrdata [114] $end
$var wire 1 8 i_wrdata [113] $end
$var wire 1 9 i_wrdata [112] $end
$var wire 1 : i_wrdata [111] $end
$var wire 1 ; i_wrdata [110] $end
$var wire 1 < i_wrdata [109] $end
$var wire 1 = i_wrdata [108] $end
$var wire 1 > i_wrdata [107] $end
$var wire 1 ? i_wrdata [106] $end
$var wire 1 @ i_wrdata [105] $end
$var wire 1 A i_wrdata [104] $end
$var wire 1 B i_wrdata [103] $end
$var wire 1 C i_wrdata [102] $end
$var wire 1 D i_wrdata [101] $end
$var wire 1 E i_wrdata [100] $end
$var wire 1 F i_wrdata [99] $end
$var wire 1 G i_wrdata [98] $end
$var wire 1 H i_wrdata [97] $end
$var wire 1 I i_wrdata [96] $end
$var wire 1 J i_wrdata [95] $end
$var wire 1 K i_wrdata [94] $end
$var wire 1 L i_wrdata [93] $end
$var wire 1 M i_wrdata [92] $end
$var wire 1 N i_wrdata [91] $end
$var wire 1 O i_wrdata [90] $end
$var wire 1 P i_wrdata [89] $end
$var wire 1 Q i_wrdata [88] $end
$var wire 1 R i_wrdata [87] $end
$var wire 1 S i_wrdata [86] $end
$var wire 1 T i_wrdata [85] $end
$var wire 1 U i_wrdata [84] $end
$var wire 1 V i_wrdata [83] $end
$var wire 1 W i_wrdata [82] $end
$var wire 1 X i_wrdata [81] $end
$var wire 1 Y i_wrdata [80] $end
$var wire 1 Z i_wrdata [79] $end
$var wire 1 [ i_wrdata [78] $end
$var wire 1 \ i_wrdata [77] $end
$var wire 1 ] i_wrdata [76] $end
$var wire 1 ^ i_wrdata [75] $end
$var wire 1 _ i_wrdata [74] $end
$var wire 1 ` i_wrdata [73] $end
$var wire 1 a i_wrdata [72] $end
$var wire 1 b i_wrdata [71] $end
$var wire 1 c i_wrdata [70] $end
$var wire 1 d i_wrdata [69] $end
$var wire 1 e i_wrdata [68] $end
$var wire 1 f i_wrdata [67] $end
$var wire 1 g i_wrdata [66] $end
$var wire 1 h i_wrdata [65] $end
$var wire 1 i i_wrdata [64] $end
$var wire 1 j i_wrdata [63] $end
$var wire 1 k i_wrdata [62] $end
$var wire 1 l i_wrdata [61] $end
$var wire 1 m i_wrdata [60] $end
$var wire 1 n i_wrdata [59] $end
$var wire 1 o i_wrdata [58] $end
$var wire 1 p i_wrdata [57] $end
$var wire 1 q i_wrdata [56] $end
$var wire 1 r i_wrdata [55] $end
$var wire 1 s i_wrdata [54] $end
$var wire 1 t i_wrdata [53] $end
$var wire 1 u i_wrdata [52] $end
$var wire 1 v i_wrdata [51] $end
$var wire 1 w i_wrdata [50] $end
$var wire 1 x i_wrdata [49] $end
$var wire 1 y i_wrdata [48] $end
$var wire 1 z i_wrdata [47] $end
$var wire 1 { i_wrdata [46] $end
$var wire 1 | i_wrdata [45] $end
$var wire 1 } i_wrdata [44] $end
$var wire 1 ~ i_wrdata [43] $end
$var wire 1 !! i_wrdata [42] $end
$var wire 1 "! i_wrdata [41] $end
$var wire 1 #! i_wrdata [40] $end
$var wire 1 $! i_wrdata [39] $end
$var wire 1 %! i_wrdata [38] $end
$var wire 1 &! i_wrdata [37] $end
$var wire 1 '! i_wrdata [36] $end
$var wire 1 (! i_wrdata [35] $end
$var wire 1 )! i_wrdata [34] $end
$var wire 1 *! i_wrdata [33] $end
$var wire 1 +! i_wrdata [32] $end
$var wire 1 ,! i_wrdata [31] $end
$var wire 1 -! i_wrdata [30] $end
$var wire 1 .! i_wrdata [29] $end
$var wire 1 /! i_wrdata [28] $end
$var wire 1 0! i_wrdata [27] $end
$var wire 1 1! i_wrdata [26] $end
$var wire 1 2! i_wrdata [25] $end
$var wire 1 3! i_wrdata [24] $end
$var wire 1 4! i_wrdata [23] $end
$var wire 1 5! i_wrdata [22] $end
$var wire 1 6! i_wrdata [21] $end
$var wire 1 7! i_wrdata [20] $end
$var wire 1 8! i_wrdata [19] $end
$var wire 1 9! i_wrdata [18] $end
$var wire 1 :! i_wrdata [17] $end
$var wire 1 ;! i_wrdata [16] $end
$var wire 1 <! i_wrdata [15] $end
$var wire 1 =! i_wrdata [14] $end
$var wire 1 >! i_wrdata [13] $end
$var wire 1 ?! i_wrdata [12] $end
$var wire 1 @! i_wrdata [11] $end
$var wire 1 A! i_wrdata [10] $end
$var wire 1 B! i_wrdata [9] $end
$var wire 1 C! i_wrdata [8] $end
$var wire 1 D! i_wrdata [7] $end
$var wire 1 E! i_wrdata [6] $end
$var wire 1 F! i_wrdata [5] $end
$var wire 1 G! i_wrdata [4] $end
$var wire 1 H! i_wrdata [3] $end
$var wire 1 I! i_wrdata [2] $end
$var wire 1 J! i_wrdata [1] $end
$var wire 1 K! i_wrdata [0] $end
$var reg 1 L! o_full $end
$var reg 1 M! o_empty $end
$var reg 128 N! o_rddata [127:0] $end
$var reg 4 O! wr_ptr [3:0] $end
$var reg 4 P! rd_ptr [3:0] $end
$var reg 4 Q! cur_ptr [3:0] $end
$upscope $end
$upscope $end

$scope begin uvm_pkg $end
$var parameter 32 R! UVM_HDL_MAX_WIDTH $end
$var parameter 32 S! UVM_STREAMBITS $end
$var parameter 32 T! UVM_RADIX $end
$var parameter 32 U! UVM_MACRO_NUMFLAGS $end
$var parameter 32 V! UVM_DEFAULT $end
$var parameter 32 W! UVM_ALL_ON $end
$var parameter 32 X! UVM_FLAGS_ON $end
$var parameter 32 Y! UVM_FLAGS_OFF $end
$var parameter 32 Z! UVM_COPY $end
$var parameter 32 [! UVM_NOCOPY $end
$var parameter 32 \! UVM_COMPARE $end
$var parameter 32 ]! UVM_NOCOMPARE $end
$var parameter 32 ^! UVM_PRINT $end
$var parameter 32 _! UVM_NOPRINT $end
$var parameter 32 `! UVM_RECORD $end
$var parameter 32 a! UVM_NORECORD $end
$var parameter 32 b! UVM_PACK $end
$var parameter 32 c! UVM_NOPACK $end
$var parameter 32 d! UVM_PHYSICAL $end
$var parameter 32 e! UVM_ABSTRACT $end
$var parameter 32 f! UVM_READONLY $end
$var parameter 32 g! UVM_NODEFPRINT $end
$var parameter 32 h! UVM_MACRO_EXTRAS $end
$var parameter 32 i! UVM_FLAGS $end
$var parameter 32 j! UVM_UNPACK $end
$var parameter 32 k! UVM_CHECK_FIELDS $end
$var parameter 32 l! UVM_END_DATA_EXTRA $end
$var parameter 32 m! UVM_START_FUNCS $end
$var parameter 32 n! UVM_SET $end
$var parameter 32 o! UVM_SETINT $end
$var parameter 32 p! UVM_SETOBJ $end
$var parameter 32 q! UVM_SETSTR $end
$var parameter 32 r! UVM_END_FUNCS $end
$var parameter 32 s! UVM_STR_CRC_POLYNOMIAL $end
$var parameter 32 t! UVM_STDOUT $end
$var parameter 32 u! UVM_LINE_WIDTH $end
$var parameter 32 v! UVM_NUM_LINES $end
$var parameter 32 w! UVM_SMALL_STRING $end
$var parameter 32 x! UVM_LARGE_STRING $end
$var reg 1 y! uvm_start_uvm_declarations $end
$var integer 32 z! uvm_global_random_seed $end
$var integer 32 {! UVM_UNBOUNDED_CONNECTIONS $end

$scope function uvm_hdl_check_path $end
$var integer 32 |! uvm_hdl_check_path $end
$upscope $end

$scope function uvm_hdl_deposit $end
$var integer 32 }! uvm_hdl_deposit $end
$var reg 1024 ~! value [1023:0] $end
$upscope $end

$scope function uvm_hdl_force $end
$var integer 32 !" uvm_hdl_force $end
$var reg 1024 "" value [1023:0] $end
$upscope $end

$scope task uvm_hdl_force_time $end
$var reg 1024 #" value [1023:0] $end
$var time 64 $" force_time $end
$upscope $end

$scope function uvm_hdl_release_and_read $end
$var integer 32 %" uvm_hdl_release_and_read $end
$var reg 1024 &" value [1023:0] $end
$upscope $end

$scope function uvm_hdl_release $end
$var integer 32 '" uvm_hdl_release $end
$upscope $end

$scope function uvm_hdl_read $end
$var integer 32 (" uvm_hdl_read $end
$var reg 1024 )" value [1023:0] $end
$upscope $end

$scope function uvm_dpi_get_next_arg_c $end
$var integer 32 *" init $end
$upscope $end

$scope function uvm_dpi_get_tool_name_c $end
$upscope $end

$scope function uvm_dpi_get_tool_version_c $end
$upscope $end

$scope function uvm_dpi_get_next_arg $end
$var integer 32 +" init $end
$upscope $end

$scope function uvm_dpi_get_tool_name $end
$upscope $end

$scope function uvm_dpi_get_tool_version $end
$upscope $end

$scope function uvm_dpi_regcomp $end
$upscope $end

$scope function uvm_dpi_regexec $end
$var integer 32 ," uvm_dpi_regexec $end
$upscope $end

$scope function uvm_dpi_regfree $end
$upscope $end

$scope function uvm_re_match $end
$var integer 32 -" uvm_re_match $end
$upscope $end

$scope function uvm_dump_re_cache $end
$upscope $end

$scope function uvm_glob_to_re $end
$upscope $end

$scope function uvm_revision_string $end
$upscope $end

$scope function uvm_radix_to_string $end
$var integer 32 ." radix $end
$upscope $end

$scope function uvm_instance_scope $end
$var reg 8 /" c [7:0] $end
$var integer 32 0" pos $end
$upscope $end

$scope function uvm_oneway_hash $end
$var integer 32 1" uvm_oneway_hash $end
$var integer 32 2" seed $end
$var reg 1 3" msb $end
$var reg 8 4" current_byte [7:0] $end
$var reg 32 5" crc1 [31:0] $end
$upscope $end

$scope function uvm_create_random_seed $end
$var integer 32 6" uvm_create_random_seed $end
$upscope $end

$scope function uvm_object_value_str $end
$upscope $end

$scope function uvm_leaf_scope $end
$var reg 8 7" scope_separator [7:0] $end
$var reg 8 8" bracket_match [7:0] $end
$var integer 32 9" pos $end
$var integer 32 :" bmatches $end
$upscope $end

$scope function uvm_bitstream_to_string $end
$var reg 4096 ;" value [4095:0] $end
$var integer 32 <" size $end
$var integer 32 =" radix $end
$upscope $end

$scope function uvm_integral_to_string $end
$var reg 64 >" value [63:0] $end
$var integer 32 ?" size $end
$var integer 32 @" radix $end
$upscope $end

$scope function uvm_vector_to_string $end
$var reg 4096 A" value [4095:0] $end
$var integer 32 B" size $end
$var integer 32 C" radix $end
$upscope $end

$scope function uvm_get_array_index_int $end
$var integer 32 D" uvm_get_array_index_int $end
$var reg 1 E" is_wildcard $end
$var integer 32 F" i $end
$upscope $end

$scope function uvm_get_array_index_string $end
$var reg 1 G" is_wildcard $end
$var integer 32 H" i $end
$upscope $end

$scope function uvm_is_array $end
$var reg 1 I" uvm_is_array $end
$upscope $end

$scope function uvm_has_wildcard $end
$upscope $end

$scope function m_uvm_string_queue_join $end
$upscope $end

$scope task run_test $end
$upscope $end

$scope function global_stop_request $end
$upscope $end

$scope function set_global_timeout $end
$var time 64 J" timeout $end
$var reg 1 K" overridable $end
$upscope $end

$scope function set_global_stop_timeout $end
$var time 64 L" timeout $end
$upscope $end

$scope function uvm_get_report_object $end
$upscope $end

$scope function uvm_report_enabled $end
$var integer 32 M" uvm_report_enabled $end
$var integer 32 N" verbosity $end
$var reg 2 O" severity [1:0] $end
$upscope $end

$scope function uvm_report $end
$var reg 2 P" severity [1:0] $end
$var integer 32 Q" verbosity $end
$var integer 32 R" line $end
$var reg 1 S" report_enabled_checked $end
$upscope $end

$scope function m__uvm_report_dpi $end
$var integer 32 T" severity $end
$var integer 32 U" verbosity $end
$var integer 32 V" line $end
$upscope $end

$scope function uvm_report_info $end
$var integer 32 W" verbosity $end
$var integer 32 X" line $end
$var reg 1 Y" report_enabled_checked $end
$upscope $end

$scope function uvm_report_warning $end
$var integer 32 Z" verbosity $end
$var integer 32 [" line $end
$var reg 1 \" report_enabled_checked $end
$upscope $end

$scope function uvm_report_error $end
$var integer 32 ]" verbosity $end
$var integer 32 ^" line $end
$var reg 1 _" report_enabled_checked $end
$upscope $end

$scope function uvm_report_fatal $end
$var integer 32 `" verbosity $end
$var integer 32 a" line $end
$var reg 1 b" report_enabled_checked $end
$upscope $end

$scope function uvm_process_report_message $end
$upscope $end

$scope function uvm_string_to_severity $end
$var reg 1 c" uvm_string_to_severity $end
$var reg 2 d" sev [1:0] $end
$upscope $end

$scope function uvm_string_to_action $end
$upscope $end

$scope function set_config_int $end
$var reg 4096 e" value [4095:0] $end
$upscope $end

$scope function set_config_object $end
$var reg 1 f" clone $end
$upscope $end

$scope function set_config_string $end
$upscope $end

$scope function uvm_is_match $end
$var reg 1 g" uvm_is_match $end
$upscope $end

$scope function uvm_string_to_bits $end
$var reg 115200 h" uvm_string_to_bits [115199:0] $end
$upscope $end

$scope function uvm_bits_to_string $end
$var reg 115200 i" str [115199:0] $end
$upscope $end

$scope task uvm_wait_for_nba_region $end
$var integer 32 j" nba $end
$var integer 32 k" next_nba $end
$upscope $end

$scope function uvm_split_string $end
$upscope $end

$scope function uvm_hdl_concat2string $end
$upscope $end
$upscope $end

$scope begin testbench_sv_unit $end
$upscope $end

$scope begin questa_uvm_pkg $end
$upscope $end

$scope begin std $end
$upscope $end
$enddefinitions $end
#0
$dumpvars
0E"
0G"
0I"
0c"
b0 d"
bx h"
bx i"
bx ~!
bx ""
bx #"
bx &"
bx )"
1y!
03"
b1110001 4"
b11010100101010010111110100110 5"
bx ;"
bx >"
bx A"
0K"
b0 O"
b0 P"
0S"
1Y"
0\"
0_"
0b"
bx e"
0f"
0g"
1!
1"
0L!
xM!
b0 N!
b0 O!
b0 P!
bx Q!
b10000000000 R!
b1000000000000 S!
b1111000000000000000000000000 T!
b10001 U!
b10101010101 V!
b101010101 W!
b101010101 X!
b0 Y!
b1 Z!
b10 [!
b100 \!
b1000 ]!
b10000 ^!
b100000 _!
b1000000 `!
b10000000 a!
b100000000 b!
b1000000000 c!
b10000000000000 d!
b100000000000000 e!
b1000000000000000 f!
b10000000000000000 g!
b100000000000000000 h!
b100000000000000001 i!
b100000000000000010 j!
b100000000000000011 k!
b100000000000000100 l!
b100000000000000101 m!
b100000000000000110 n!
b100000000000000110 o!
b100000000000000111 p!
b100000000000001000 q!
b100000000000001000 r!
b100110000010001110110110110 s!
b1 t!
b1111000 u!
b1111000 v!
b1110111111 w!
b11100000111111111 x!
b100 #
b10000000 $
b10000000000 %
b0 ."
b0 7"
b0 8"
b0 9"
b0 :"
b0 D"
b0 F"
b0 H"
b0 |!
b0 }!
b0 !"
b0 %"
b0 '"
b0 ("
b0 *"
b0 +"
b0 ,"
b0 -"
b10101111111110001010110000110 z!
b101110 /"
b111 0"
b1101111110011111000000001101011 1"
b10101111111110001010110000110 2"
b10101011100001101000011110010110 6"
b0 <"
b0 ="
b0 ?"
b0 @"
b0 B"
b0 C"
b0 M"
b111110100 N"
b0 Q"
b0 R"
b0 T"
b0 U"
b0 V"
b11001000 W"
b100010110 X"
b0 Z"
b0 ["
b0 ]"
b0 ^"
b0 `"
b0 a"
b100011 j"
b100011 k"
b11111111111111111111111111111111 {!
bx $"
bx J"
bx L"
0)
0(
0K!
0J!
0I!
0H!
0G!
0F!
0E!
0D!
0C!
0B!
0A!
0@!
0?!
0>!
0=!
0<!
0;!
0:!
09!
08!
07!
06!
05!
04!
03!
02!
01!
00!
0/!
0.!
0-!
0,!
0+!
0*!
0)!
0(!
0'!
0&!
0%!
0$!
0#!
0"!
0!!
0~
0}
0|
0{
0z
0y
0x
0w
0v
0u
0t
0s
0r
0q
0p
0o
0n
0m
0l
0k
0j
0i
0h
0g
0f
0e
0d
0c
0b
0a
0`
0_
0^
0]
0\
0[
0Z
0Y
0X
0W
0V
0U
0T
0S
0R
0Q
0P
0O
0N
0M
0L
0K
0J
0I
0H
0G
0F
0E
0D
0C
0B
0A
0@
0?
0>
0=
0<
0;
0:
09
08
07
06
05
04
03
02
01
00
0/
0.
0-
0,
0+
0*
1'
1&
$end
#5
0!
0"
0'
0&
#10
1!
1&
b0 Q!
b100100 k"
1M!
b100100 j"
#15
0!
0&
#20
1!
1&
#21
1(
1J!
1I!
1G!
1E!
1D!
1B!
1A!
1?!
1=!
19!
18!
17!
16!
14!
10!
1/!
1,!
1+!
1*!
1)!
1&!
1$!
1#!
1}
1|
1{
1y
1x
1r
1p
1o
1n
1l
1k
1j
1g
1d
1c
1a
1`
1^
1]
1Y
1U
1S
1N
1E
1D
1C
1B
1A
1@
1<
1;
1:
19
17
15
12
11
1-
1,
#25
0!
0&
#30
1!
1&
b100101 k"
b1101111110011111000000001101100 6"
b1 O!
b100101 j"
#31
0(
#35
0!
0&
#40
1!
1&
b1 Q!
0M!
#41
1(
0I!
0G!
0E!
1C!
0B!
1@!
0?!
1<!
09!
07!
06!
15!
04!
13!
0/!
1.!
0+!
0)!
1%!
0$!
0#!
1"!
1~
0|
0y
1w
1s
1q
0p
0o
1m
0l
0k
0g
1f
0c
1b
0a
0`
1_
0^
1\
1Z
0Y
1X
1V
0U
1T
1R
1P
1M
1L
1J
1I
1H
1G
1F
0D
0C
0B
0A
0@
1>
1=
0;
0:
18
07
13
1.
0-
0,
1+
#45
0!
0&
#50
1!
1&
b100110 k"
b1101111110011111000000001101110 6"
b10 O!
b100110 j"
#51
0(
#55
0!
0&
#60
1!
1&
b10 Q!
#61
1(
0J!
1E!
0D!
1B!
0A!
0=!
0<!
1:!
19!
08!
16!
00!
1/!
1-!
1+!
1(!
1$!
0"!
0}
0{
1v
1t
0s
1o
0m
1l
0j
1h
1g
1e
0d
0_
1^
1[
0Z
1Y
1U
0S
0R
1Q
1O
0N
0F
0E
1D
1A
1@
0>
1;
09
08
17
14
01
0+
#65
0!
0&
#70
1!
1&
b100111 k"
b1101111110011111000000001110001 6"
b11 O!
b100111 j"
#71
0(
#75
0!
0&
#80
1!
1&
b11 Q!
#81
1(
1K!
1J!
1I!
1G!
0E!
0C!
0B!
1<!
1;!
09!
05!
14!
11!
0-!
0,!
0+!
1)!
0(!
1'!
0&!
0%!
0$!
1#!
1!!
0~
1}
1|
1{
1y
0w
1s
0r
0q
1p
0o
0l
1i
0h
0e
1d
1c
1`
0[
1Z
0X
1W
0V
0T
1R
0Q
0O
1N
0L
0J
0H
0G
1E
0D
1C
0@
1?
0=
1:
07
04
02
10
1*
#85
0!
0&
#90
1!
1&
b101000 k"
b1101111110011111000000001110101 6"
b100 O!
b101000 j"
#91
0(
#95
0!
0&
#100
1!
1&
b100 Q!
#101
1(
0K!
0G!
1E!
1A!
1?!
0;!
04!
03!
12!
0.!
1-!
1,!
1+!
0)!
0'!
0#!
0!!
0{
1z
0x
0v
1u
0t
1q
0p
1o
0n
1m
1k
1j
0i
0g
0f
0d
1_
0\
1X
0W
1V
1T
1S
0P
1O
0N
1K
1G
1F
0E
1B
0<
0;
19
18
05
14
00
1-
1,
1+
#105
0!
0&
#110
1!
1&
b101001 k"
b1101111110011111000000001111010 6"
b101 O!
b101001 j"
#111
0(
#115
0!
0&
#120
1!
1&
b101 Q!
#121
1(
1K!
0J!
1F!
0E!
1B!
0@!
19!
17!
06!
10!
0/!
1.!
0-!
0*!
0|
1{
0y
1x
0u
1r
1p
1l
0j
1i
1h
1g
1e
0b
0`
0_
0^
0]
1[
0Z
1W
0V
0U
0T
0S
1P
0O
0M
0K
1J
1H
0G
1E
1D
0C
0A
0?
1>
1;
08
15
04
12
11
10
1/
0.
0-
0,
#125
0!
0&
#130
1!
1&
b101010 k"
b1101111110011111000000010000000 6"
b110 O!
b101010 j"
#131
0(
#135
0!
0&
#140
1!
1&
b110 Q!
#141
1(
0K!
1H!
1D!
1C!
0A!
1;!
07!
16!
15!
02!
01!
00!
0.!
1-!
0,!
1)!
1'!
1&!
1"!
0}
1|
1y
1w
1v
1t
0s
0q
0p
1j
0h
1f
0e
0c
1_
0[
1Z
0X
1U
0R
0P
0I
0F
0D
1@
1?
1=
1<
0:
18
17
16
05
14
02
1.
1,
#145
0!
0&
#150
1!
1&
b101011 k"
b1101111110011111000000010000111 6"
b111 O!
b101011 j"
#151
0(
#155
0!
0&
#160
1!
1&
b111 Q!
#161
1(
1K!
0H!
0F!
1E!
0C!
0B!
1A!
0?!
17!
06!
05!
13!
12!
10!
1*!
1(!
0'!
0&!
1%!
0"!
1!!
1~
0|
0y
0v
1p
0o
1n
0k
0i
1h
0f
1d
1a
1`
0_
1^
1]
1\
0Z
1X
0W
1V
0U
1T
1R
1P
1O
1M
1L
0H
1F
0E
1D
1A
0?
0<
1:
09
08
03
01
00
0.
0,
#165
0!
0&
#170
1!
1&
b101100 k"
b1101111110011111000000010001111 6"
b1000 O!
b101100 j"
#171
0(
#175
0!
0&
#180
1!
1&
b1000 Q!
#181
1(
0K!
1H!
1F!
0E!
0D!
0A!
1@!
1?!
1>!
0<!
0;!
09!
18!
15!
14!
03!
02!
1/!
0+!
0*!
0)!
0(!
1&!
1$!
1#!
0~
0{
1v
0t
1q
1o
0n
0m
0l
0j
1i
0d
1b
0\
0V
0T
1N
1I
1H
1E
0D
0A
0@
1?
0>
0=
1<
0:
19
07
06
12
11
10
1-
1,
0+
#185
0!
0&
#190
1!
1&
b101101 k"
b1101111110011111000000010011000 6"
b1001 O!
b101101 j"
#191
0(
#195
0!
0&
#200
1!
1&
b1001 Q!
#201
1(
1K!
1J!
0H!
1G!
0F!
1E!
1D!
1C!
1A!
0?!
0>!
1<!
1;!
19!
05!
13!
11!
00!
0/!
1.!
0-!
1+!
1)!
1(!
0&!
0%!
0$!
1}
1y
0v
1u
1t
0p
0o
1m
1j
0i
0g
1e
1d
1c
0b
1_
0X
1V
1S
0R
1Q
0P
0M
0L
1K
0J
0I
0F
0E
1D
1C
0B
1@
0?
1=
09
18
17
04
13
1.
1+
#205
0!
0&
#210
1!
1&
b101110 k"
b1101111110011111000000010100010 6"
b1010 O!
b101110 j"
#211
0(
#215
0!
0&
#220
1!
1&
b1010 Q!
#221
1(
0J!
0I!
1F!
0C!
1B!
0A!
1?!
1=!
0<!
0;!
0:!
09!
16!
04!
10!
1-!
0+!
0)!
1&!
1%!
1$!
0#!
0!!
1|
0y
1v
0r
0q
1p
1o
0m
1l
1i
0h
1g
0e
1b
0`
0]
1Z
0Y
1X
0S
0Q
0O
1M
1L
0K
1G
1F
1E
0D
0C
1A
0@
1?
0=
0;
19
08
16
15
14
03
02
01
0.
0,
0+
0*
#225
0!
0&
#230
1!
1&
b101111 k"
b1101111110011111000000010101101 6"
b1011 O!
b101111 j"
#231
0(
#235
0!
0&
#240
1!
1&
b1011 Q!
#241
1(
1J!
1I!
0G!
0E!
0D!
1C!
0?!
1>!
1<!
1;!
19!
07!
15!
14!
01!
00!
0-!
1,!
1'!
0%!
0$!
1#!
1~
1y
0x
0v
0u
0t
0p
0d
0b
0a
0^
1]
1[
0Z
0X
1W
0V
1U
1T
1S
1Q
1O
0N
1J
1I
1C
1B
1=
1:
09
18
07
11
00
1.
1,
#245
0!
0&
#250
1!
1&
b110000 k"
b1101111110011111000000010111001 6"
b1100 O!
b110000 j"
#251
0(
#255
0!
0&
#260
1!
1&
b1100 Q!
#261
1(
0J!
0I!
1H!
1E!
1D!
0B!
0>!
0=!
0<!
1:!
17!
04!
0,!
1*!
1)!
0(!
1%!
0#!
0~
0}
1{
1x
0w
1u
1t
1q
1p
0o
0l
0j
0i
0g
1f
1d
1a
1\
0[
1Y
1X
1V
0T
0S
0Q
1K
0I
0H
0E
0A
0?
0=
0<
1;
08
06
04
12
0.
1+
#265
0!
0&
#270
1!
1&
b110001 k"
b1101111110011111000000011000110 6"
b1101 O!
b110001 j"
#271
0(
#275
0!
0&
#280
1!
1&
b1101 Q!
#281
1(
0K!
1J!
1I!
0E!
0D!
1B!
1A!
1>!
1=!
1<!
0:!
09!
06!
03!
12!
11!
10!
1/!
1+!
0'!
1!!
1~
1}
0|
0y
0u
1s
1o
1n
1m
0f
1e
0d
0c
0a
1Z
0W
1S
1R
1Q
1N
0M
0F
0C
1=
0:
18
16
13
0-
0,
0+
1*
#285
0!
0&
#290
1!
1&
b110010 k"
b1101111110011111000000011010100 6"
b1110 O!
b110010 j"
#291
0(
#295
0!
0&
#300
1!
1&
b1110 Q!
#301
1(
1K!
0I!
0H!
1E!
1D!
0B!
0A!
0@!
0>!
0<!
0;!
19!
07!
16!
05!
14!
02!
00!
1-!
0+!
0*!
0)!
1(!
0&!
0%!
1#!
0!!
0~
1|
1y
1w
1u
0s
1r
0q
0p
0o
0n
1k
1i
1f
0e
1d
1c
1b
0]
0Y
0X
1W
0V
0S
0O
0L
0K
1I
1H
0G
1F
1E
1C
0B
1A
1?
1>
0;
1:
19
08
05
10
1+
0*
#305
0!
0&
#310
1!
1&
b110011 k"
b1101111110011111000000011100011 6"
b1111 O!
b110011 j"
#311
0(
#315
0!
0&
#320
1!
1&
b1111 Q!
#321
1(
0K!
1I!
1G!
0F!
0D!
0C!
1B!
09!
08!
04!
10!
1,!
1&!
1"!
1~
0}
0|
0y
1q
1p
1n
0m
0i
1h
1e
0d
0c
1`
1^
0\
1[
0Z
1Y
1X
1V
0U
1T
0Q
1P
1M
0F
1D
1B
0A
1@
0>
1<
1;
0:
17
06
15
14
02
01
00
1.
1-
1*
#325
0!
0&
#330
1!
1&
b110100 k"
b1101111110011111000000011110011 6"
b0 O!
b110100 j"
#331
0(
#335
0!
0&
#340
1!
1&
b0 Q!
1M!
#341
1(
1K!
0J!
0I!
1F!
1C!
1?!
1>!
0=!
1:!
06!
01!
0/!
0.!
0,!
1+!
1*!
1)!
0(!
1%!
1$!
1}
1|
0z
1y
0x
0w
1v
1s
0k
1j
0h
1g
0e
1d
1c
0`
0_
0^
1]
1\
0Y
1S
0R
1Q
0N
0M
0J
0H
1G
1F
0E
0D
0C
0B
1A
0?
0<
1:
18
16
05
04
03
0.
0-
0+
0*
#345
0!
0&
#350
1!
1&
b110101 k"
b1101111110011111000000100000100 6"
b1 O!
b110101 j"
#351
0(
#355
0!
0&
#360
1!
1&
b1 Q!
0M!
#361
1(
0K!
0F!
0E!
0C!
1A!
1@!
1<!
19!
17!
12!
11!
1/!
1.!
0)!
1(!
0&!
0#!
0"!
1!!
0|
0y
0v
0t
1o
1l
1k
1i
1h
0f
0d
0c
0b
1`
1_
1^
0\
0[
1Z
1Y
0X
0P
1M
1L
1K
1J
1H
0F
1E
1D
0A
0@
1?
0=
0:
09
08
07
15
14
1+
#365
0!
0&
#370
1!
1&
b110110 k"
b1101111110011111000000100010110 6"
b10 O!
b110110 j"
#371
0(
#375
0!
0&
#380
1!
1&
b10 Q!
#381
1(
1H!
1E!
1C!
0@!
0?!
0<!
09!
18!
07!
1,!
0*!
1)!
0(!
1#!
1"!
0!!
0~
0}
1|
0{
1z
1y
1x
0u
0q
0o
0n
0l
0j
0h
0g
1e
1d
0_
0Y
1X
0W
0Q
1P
0L
0K
0J
0G
0D
1C
1B
1A
1@
1<
17
06
05
12
11
1,
0+
1*
#385
0!
0&
#390
1!
1&
b110111 k"
b1101111110011111000000100101001 6"
b11 O!
b110111 j"
#391
0(
#395
0!
0&
#400
1!
1&
b11 Q!
#401
1(
1K!
0B!
17!
15!
14!
13!
01!
0/!
0.!
0-!
0,!
1*!
0)!
1(!
1'!
1&!
0%!
0$!
0#!
1!!
1}
0|
1{
0z
0x
0r
1q
1n
1j
1g
1f
0e
0d
1b
1a
0`
0^
1\
0X
1W
1U
0S
1R
1Q
0M
1K
0H
1G
0E
0C
0B
0A
0@
0?
1>
19
18
07
16
15
04
13
1-
0,
1+
#405
0!
0&
#410
1!
1&
b111000 k"
b1101111110011111000000100111101 6"
b100 O!
b111000 j"
#411
0(
#415
0!
0&
#420
1!
1&
b100 Q!
#421
1)
#425
0!
0&
#430
1!
1&
b111001 k"
b1101111110011111000000101010010 6"
b100000011111101001100001101000000110110111001110000111011001000101111111001011110111110011101001000000000100011001101110001 N!
b1 P!
b111001 j"
#431
0)
#435
0!
0&
#440
1!
1&
b11 Q!
#441
1)
#445
0!
0&
#450
1!
1&
b111010 k"
b1101111110011111000000101101000 6"
b1000100001110000100010000110111111100010110110110011110000001111110111111010000010111001100101101111110000101101011111000010000 N!
b10 P!
b111010 j"
#451
0)
#455
0!
0&
#460
1!
1&
b10 Q!
#461
1)
#465
0!
0&
#470
1!
1&
b111011 k"
b1101111110011111000000101111111 6"
b10100101101001000110011111010011000100100110101010011010001100010100001011000011101000111100010111111110000010100010011101011000 N!
b11 P!
b111011 j"
#471
0)
#475
0!
0&
#480
1!
1&
b1 Q!
#481
1)
#485
0!
0&
#490
1!
1&
b111100 k"
b1101111110011111000000110010111 6"
b11010101110110110110100000000101010000111011110010110001100011011100101101000001010101100011101100001011110110100010010101011001 N!
b100 P!
b111100 j"
#491
0)
#495
0!
0&
#500
1!
1&
b0 Q!
1M!
#501
1)
#505
0!
0&
#510
1!
1&
b111101 k"
b1101111110011111000000110110000 6"
b111101 j"
#511
0)
#515
0!
0&
#520
1!
1&
#521
1)
#525
0!
0&
#530
1!
1&
b111110 k"
b1101111110011111000000111001010 6"
b111110 j"
#531
0)
#535
0!
0&
#540
1!
1&
#541
1)
#545
0!
0&
#550
1!
1&
b111111 k"
b1101111110011111000000111100101 6"
b111111 j"
#551
0)
#555
0!
0&
#560
1!
1&
#561
1)
#565
0!
0&
